{
  "data": {
    "places": {
      "meta": {
        "count": 644,
        "next": "https://api.hel.fi/linkedevents-test/v1/place/?data_source=tprek&page=2&page_size=20&text=a",
        "previous": null,
        "__typename": "Meta"
      },
      "data": [
        {
          "id": "tprek:15417",
          "internalId": "https://api.hel.fi/linkedevents-test/v1/place/tprek:15417/",
          "name": {
            "en": "Sellon kirjasto",
            "fi": "Sellon kirjasto",
            "sv": "Sellobiblioteket",
            "__typename": "LocalisedObject"
          },
          "streetAddress": {
            "en": "Leppävaarankatu 9",
            "fi": "Leppävaarankatu 9",
            "sv": "Albergagatan 9",
            "__typename": "LocalisedObject"
          },
          "addressLocality": {
            "en": "Espoo",
            "fi": "Espoo",
            "sv": "Esbo",
            "__typename": "LocalisedObject"
          },
          "telephone": {
            "en": null,
            "fi": "+358 9 8165 7603",
            "sv": null,
            "__typename": "LocalisedObject"
          },
          "__typename": "Place"
        },
        {
          "id": "tprek:15321",
          "internalId": "https://api.hel.fi/linkedevents-test/v1/place/tprek:15321/",
          "name": {
            "en": "Entresse Library",
            "fi": "Entressen kirjasto",
            "sv": "Entressebiblioteket",
            "__typename": "LocalisedObject"
          },
          "streetAddress": {
            "en": "Siltakatu 11",
            "fi": "Siltakatu 11",
            "sv": "Brogatan 11",
            "__typename": "LocalisedObject"
          },
          "addressLocality": {
            "en": "Espoo",
            "fi": "Espoo",
            "sv": "Esbo",
            "__typename": "LocalisedObject"
          },
          "telephone": {
            "en": null,
            "fi": "+358 9 8165 3776",
            "sv": null,
            "__typename": "LocalisedObject"
          },
          "__typename": "Place"
        },
        {
          "id": "tprek:15395",
          "internalId": "https://api.hel.fi/linkedevents-test/v1/place/tprek:15395/",
          "name": {
            "en": "Iso Omena Library",
            "fi": "Ison Omenan kirjasto",
            "sv": "Iso Omena bibliotek",
            "__typename": "LocalisedObject"
          },
          "streetAddress": {
            "en": "Suomenlahdentie 1",
            "fi": "Suomenlahdentie 1",
            "sv": "Finnviksvägen 1",
            "__typename": "LocalisedObject"
          },
          "addressLocality": {
            "en": "Espoo",
            "fi": "Espoo",
            "sv": "Esbo",
            "__typename": "LocalisedObject"
          },
          "telephone": {
            "en": null,
            "fi": "+358 9 8165 7723",
            "sv": null,
            "__typename": "LocalisedObject"
          },
          "__typename": "Place"
        },
        {
          "id": "tprek:15311",
          "internalId": "https://api.hel.fi/linkedevents-test/v1/place/tprek:15311/",
          "name": {
            "en": "Tapiola Library",
            "fi": "Tapiolan kirjasto",
            "sv": "Hagalunds bibliotek",
            "__typename": "LocalisedObject"
          },
          "streetAddress": {
            "en": "Kulttuuriaukio 2",
            "fi": "Kulttuuriaukio 2",
            "sv": "Kulturplatsen 2",
            "__typename": "LocalisedObject"
          },
          "addressLocality": {
            "en": "Espoo",
            "fi": "Espoo",
            "sv": "Esbo",
            "__typename": "LocalisedObject"
          },
          "telephone": {
            "en": null,
            "fi": "+358 50 428 9392",
            "sv": null,
            "__typename": "LocalisedObject"
          },
          "__typename": "Place"
        },
        {
          "id": "tprek:18703",
          "internalId": "https://api.hel.fi/linkedevents-test/v1/place/tprek:18703/",
          "name": {
            "en": "Tikkurila Library",
            "fi": "Tikkurilan kirjasto",
            "sv": "Dickursby bibliotek",
            "__typename": "LocalisedObject"
          },
          "streetAddress": {
            "en": "Lummetie 4",
            "fi": "Lummetie 4",
            "sv": "Näckrosvägen 4",
            "__typename": "LocalisedObject"
          },
          "addressLocality": {
            "en": "Vantaa",
            "fi": "Vantaa",
            "sv": "Vanda",
            "__typename": "LocalisedObject"
          },
          "telephone": {
            "en": null,
            "fi": "+358 43 824 8307",
            "sv": null,
            "__typename": "LocalisedObject"
          },
          "__typename": "Place"
        },
        {
          "id": "tprek:20879",
          "internalId": "https://api.hel.fi/linkedevents-test/v1/place/tprek:20879/",
          "name": {
            "en": "Finnish National Theatre",
            "fi": "Suomen Kansallisteatteri",
            "sv": "Finlands nationalteater",
            "__typename": "LocalisedObject"
          },
          "streetAddress": {
            "en": "Läntinen Teatterikuja 1",
            "fi": "Läntinen Teatterikuja 1",
            "sv": "Västra Teatergränden 1",
            "__typename": "LocalisedObject"
          },
          "addressLocality": {
            "en": "Helsinki",
            "fi": "Helsinki",
            "sv": "Helsingfors",
            "__typename": "LocalisedObject"
          },
          "telephone": {
            "en": null,
            "fi": "+358 10 733 1331",
            "sv": null,
            "__typename": "LocalisedObject"
          },
          "__typename": "Place"
        },
        {
          "id": "tprek:8740",
          "internalId": "https://api.hel.fi/linkedevents-test/v1/place/tprek:8740/",
          "name": {
            "en": "Malmitalo",
            "fi": "Malmitalo",
            "sv": "Malms kulturhus",
            "__typename": "LocalisedObject"
          },
          "streetAddress": {
            "en": "Ala-Malmin tori 1",
            "fi": "Ala-Malmin tori 1",
            "sv": "Nedre Malms torg 1",
            "__typename": "LocalisedObject"
          },
          "addressLocality": {
            "en": "Helsinki",
            "fi": "Helsinki",
            "sv": "Helsingfors",
            "__typename": "LocalisedObject"
          },
          "telephone": {
            "en": null,
            "fi": "+358 9 310 80831",
            "sv": null,
            "__typename": "LocalisedObject"
          },
          "__typename": "Place"
        },
        {
          "id": "tprek:8192",
          "internalId": "https://api.hel.fi/linkedevents-test/v1/place/tprek:8192/",
          "name": {
            "en": "Malmi Library",
            "fi": "Malmin kirjasto",
            "sv": "Malms bibliotek",
            "__typename": "LocalisedObject"
          },
          "streetAddress": {
            "en": "Ala-Malmin tori 1",
            "fi": "Ala-Malmin tori 1",
            "sv": "Nedre Malms torg 1",
            "__typename": "LocalisedObject"
          },
          "addressLocality": {
            "en": "Helsinki",
            "fi": "Helsinki",
            "sv": "Helsingfors",
            "__typename": "LocalisedObject"
          },
          "telephone": {
            "en": null,
            "fi": "+358 9 310 85070",
            "sv": null,
            "__typename": "LocalisedObject"
          },
          "__typename": "Place"
        },
        {
          "id": "tprek:18241",
          "internalId": "https://api.hel.fi/linkedevents-test/v1/place/tprek:18241/",
          "name": {
            "en": "Myyrmäki Library",
            "fi": "Myyrmäen kirjasto",
            "sv": "Myrbacka bibliotek",
            "__typename": "LocalisedObject"
          },
          "streetAddress": {
            "en": "Paalutori 3",
            "fi": "Paalutori 3",
            "sv": "Påltorget 3",
            "__typename": "LocalisedObject"
          },
          "addressLocality": {
            "en": "Vantaa",
            "fi": "Vantaa",
            "sv": "Vanda",
            "__typename": "LocalisedObject"
          },
          "telephone": {
            "en": null,
            "fi": "+358 43 825 1308",
            "sv": null,
            "__typename": "LocalisedObject"
          },
          "__typename": "Place"
        },
        {
          "id": "tprek:8310",
          "internalId": "https://api.hel.fi/linkedevents-test/v1/place/tprek:8310/",
          "name": {
            "en": "Vuosaari Library",
            "fi": "Vuosaaren kirjasto",
            "sv": "Nordsjö bibliotek",
            "__typename": "LocalisedObject"
          },
          "streetAddress": {
            "en": "Mosaiikkitori 2",
            "fi": "Mosaiikkitori 2",
            "sv": "Mosaiktorget 2",
            "__typename": "LocalisedObject"
          },
          "addressLocality": {
            "en": "Helsinki",
            "fi": "Helsinki",
            "sv": "Helsingfors",
            "__typename": "LocalisedObject"
          },
          "telephone": {
            "en": null,
            "fi": "+358 9 310 85098",
            "sv": null,
            "__typename": "LocalisedObject"
          },
          "__typename": "Place"
        },
        {
          "id": "tprek:7254",
          "internalId": "https://api.hel.fi/linkedevents-test/v1/place/tprek:7254/",
          "name": {
            "en": "Annantalo Arts Centre",
            "fi": "Annantalo",
            "sv": "Annegården",
            "__typename": "LocalisedObject"
          },
          "streetAddress": {
            "en": "Annankatu 30",
            "fi": "Annankatu 30",
            "sv": "Annegatan 30",
            "__typename": "LocalisedObject"
          },
          "addressLocality": {
            "en": "Helsinki",
            "fi": "Helsinki",
            "sv": "Helsingfors",
            "__typename": "LocalisedObject"
          },
          "telephone": {
            "en": null,
            "fi": "+358 9 310 37185",
            "sv": null,
            "__typename": "LocalisedObject"
          },
          "__typename": "Place"
        },
        {
          "id": "tprek:7259",
          "internalId": "https://api.hel.fi/linkedevents-test/v1/place/tprek:7259/",
          "name": {
            "en": "Stoa",
            "fi": "Stoa",
            "sv": "Stoa",
            "__typename": "LocalisedObject"
          },
          "streetAddress": {
            "en": "Turunlinnantie 1",
            "fi": "Turunlinnantie 1",
            "sv": "Åbohusvägen 1",
            "__typename": "LocalisedObject"
          },
          "addressLocality": {
            "en": "Helsinki",
            "fi": "Helsinki",
            "sv": "Helsingfors",
            "__typename": "LocalisedObject"
          },
          "telephone": {
            "en": null,
            "fi": "+358 9 310 88405",
            "sv": null,
            "__typename": "LocalisedObject"
          },
          "__typename": "Place"
        },
        {
          "id": "tprek:8269",
          "internalId": "https://api.hel.fi/linkedevents-test/v1/place/tprek:8269/",
          "name": {
            "en": "Pasila Library",
            "fi": "Pasilan kirjasto",
            "sv": "Böle bibliotek",
            "__typename": "LocalisedObject"
          },
          "streetAddress": {
            "en": "Kellosilta 9",
            "fi": "Kellosilta 9",
            "sv": "Klockbron 9",
            "__typename": "LocalisedObject"
          },
          "addressLocality": {
            "en": "Helsinki",
            "fi": "Helsinki",
            "sv": "Helsingfors",
            "__typename": "LocalisedObject"
          },
          "telephone": {
            "en": null,
            "fi": "+358 9 310 85001",
            "sv": null,
            "__typename": "LocalisedObject"
          },
          "__typename": "Place"
        },
        {
          "id": "tprek:7255",
          "internalId": "https://api.hel.fi/linkedevents-test/v1/place/tprek:7255/",
          "name": {
            "en": "Kanneltalo",
            "fi": "Kanneltalo",
            "sv": "Gamlasgården",
            "__typename": "LocalisedObject"
          },
          "streetAddress": {
            "en": "Klaneettitie 5",
            "fi": "Klaneettitie 5",
            "sv": "Klarinettvägen 5",
            "__typename": "LocalisedObject"
          },
          "addressLocality": {
            "en": "Helsinki",
            "fi": "Helsinki",
            "sv": "Helsingfors",
            "__typename": "LocalisedObject"
          },
          "telephone": {
            "en": null,
            "fi": "+358 9 310 32416",
            "sv": null,
            "__typename": "LocalisedObject"
          },
          "__typename": "Place"
        },
        {
          "id": "tprek:8149",
          "internalId": "https://api.hel.fi/linkedevents-test/v1/place/tprek:8149/",
          "name": {
            "en": "Töölö Library",
            "fi": "Töölön kirjasto",
            "sv": "Tölö bibliotek",
            "__typename": "LocalisedObject"
          },
          "streetAddress": {
            "en": "Topeliuksenkatu 6",
            "fi": "Topeliuksenkatu 6",
            "sv": "Topeliusgatan 6",
            "__typename": "LocalisedObject"
          },
          "addressLocality": {
            "en": "Helsinki",
            "fi": "Helsinki",
            "sv": "Helsingfors",
            "__typename": "LocalisedObject"
          },
          "telephone": {
            "en": null,
            "fi": "+358 9 310 85925",
            "sv": null,
            "__typename": "LocalisedObject"
          },
          "__typename": "Place"
        },
        {
          "id": "tprek:8215",
          "internalId": "https://api.hel.fi/linkedevents-test/v1/place/tprek:8215/",
          "name": {
            "en": "Kallio Library",
            "fi": "Kallion kirjasto",
            "sv": "Berghälls bibliotek",
            "__typename": "LocalisedObject"
          },
          "streetAddress": {
            "en": "Viides linja 11",
            "fi": "Viides linja 11",
            "sv": "Femte linjen 11",
            "__typename": "LocalisedObject"
          },
          "addressLocality": {
            "en": "Helsinki",
            "fi": "Helsinki",
            "sv": "Helsingfors",
            "__typename": "LocalisedObject"
          },
          "telephone": {
            "en": null,
            "fi": "+358 9 310 85953",
            "sv": null,
            "__typename": "LocalisedObject"
          },
          "__typename": "Place"
        },
        {
          "id": "tprek:8184",
          "internalId": "https://api.hel.fi/linkedevents-test/v1/place/tprek:8184/",
          "name": {
            "en": "Itäkeskus Library",
            "fi": "Itäkeskuksen kirjasto",
            "sv": "Östra centrums bibliotek",
            "__typename": "LocalisedObject"
          },
          "streetAddress": {
            "en": "Turunlinnantie 1",
            "fi": "Turunlinnantie 1",
            "sv": "Åbohusvägen 1",
            "__typename": "LocalisedObject"
          },
          "addressLocality": {
            "en": "Helsinki",
            "fi": "Helsinki",
            "sv": "Helsingfors",
            "__typename": "LocalisedObject"
          },
          "telephone": {
            "en": null,
            "fi": "+358 9 310 85090",
            "sv": null,
            "__typename": "LocalisedObject"
          },
          "__typename": "Place"
        },
        {
          "id": "tprek:15376",
          "internalId": "https://api.hel.fi/linkedevents-test/v1/place/tprek:15376/",
          "name": {
            "en": "Soukka Library",
            "fi": "Soukan kirjasto",
            "sv": "Sökö bibliotek",
            "__typename": "LocalisedObject"
          },
          "streetAddress": {
            "en": "Soukantie 4",
            "fi": "Soukantie 4",
            "sv": "Sökövägen 4",
            "__typename": "LocalisedObject"
          },
          "addressLocality": {
            "en": "Espoo",
            "fi": "Espoo",
            "sv": "Esbo",
            "__typename": "LocalisedObject"
          },
          "telephone": {
            "en": null,
            "fi": "+358 9 8165 7736",
            "sv": null,
            "__typename": "LocalisedObject"
          },
          "__typename": "Place"
        },
        {
          "id": "tprek:8223",
          "internalId": "https://api.hel.fi/linkedevents-test/v1/place/tprek:8223/",
          "name": {
            "en": "Multilingual Library",
            "fi": "Monikielinen kirjasto",
            "sv": "Flerspråkiga biblioteket",
            "__typename": "LocalisedObject"
          },
          "streetAddress": {
            "en": "Kellosilta 9",
            "fi": "Kellosilta 9",
            "sv": "Klockbron 9",
            "__typename": "LocalisedObject"
          },
          "addressLocality": {
            "en": "Helsinki",
            "fi": "Helsinki",
            "sv": "Helsingfors",
            "__typename": "LocalisedObject"
          },
          "telephone": {
            "en": null,
            "fi": "+358 9 310 85402",
            "sv": null,
            "__typename": "LocalisedObject"
          },
          "__typename": "Place"
        },
        {
          "id": "tprek:20755",
          "internalId": "https://api.hel.fi/linkedevents-test/v1/place/tprek:20755/",
          "name": {
            "en": "Svenska Teatern",
            "fi": "Svenska Teatern",
            "sv": "Svenska Teatern",
            "__typename": "LocalisedObject"
          },
          "streetAddress": {
            "en": "Pohjoisesplanadi 2",
            "fi": "Pohjoisesplanadi 2",
            "sv": "Norra Esplanaden 2",
            "__typename": "LocalisedObject"
          },
          "addressLocality": {
            "en": "Helsinki",
            "fi": "Helsinki",
            "sv": "Helsingfors",
            "__typename": "LocalisedObject"
          },
          "telephone": {
            "en": null,
            "fi": "+358 9 6162 1411",
            "sv": null,
            "__typename": "LocalisedObject"
          },
          "__typename": "Place"
        }
      ],
      "__typename": "PlaceListResponse"
    }
  }
}
